{
  "packName": "GregTech Lite",
  "packId": "gregtechlite",
  "version": "1.0.0",
  "debug": false,
  "classes": {
    "preInit": [
    ]
  },
  "loaders": {
    "preInit": [
      "preInit/"
    ],
    "postInit": [
      "postInit/"
    ]
  }
}